…
    ## # A tibble: 16,900 × 3
    ##        x     y     z
    ##    <dbl> <dbl> <dbl>
    ##  1     1     1    71
    ##  2     2     1    56
    ##  3     3     1    54
    ##  4     4     1    48
    ##  5     5     1    53
    ##  6     6     1    47
    ##  7     7     1    70
    ##  8     8     1    48
    ##  9     9     1    64
    ## 10    10     1    60
    ## # … with 16,890 more rows
…
    ## # A tibble: 152,100 × 4
    ##        x     y     z smooth
    ##    <dbl> <dbl> <dbl>  <dbl>
    ##  1     1     1    NA      3
    ##  2     2     1    NA      3
    ##  3     3     1    NA      3
    ##  4     4     1    NA      3
    ##  5     5     1    NA      3
    ##  6     6     1    NA      3
    ##  7     7     1    NA      3
    ##  8     8     1    NA      3
    ##  9     9     1    NA      3
    ## 10    10     1    NA      3
    ## # … with 152,090 more rows
…
    ## # A tibble: 16,900 × 3
    ##        x     y     z
    ##    <dbl> <dbl> <dbl>
    ##  1     1     1  318.
    ##  2     2     1  256.
    ##  3     3     1  248.
    ##  4     4     1  223.
    ##  5     5     1  243.
    ##  6     6     1  218.
    ##  7     7     1  314.
    ##  8     8     1  223.
    ##  9     9     1  289.
    ## 10    10     1  273.
    ## # … with 16,890 more rows
